[
	{
		"id": 0,
		"date": "5 февраля 2018",
		"contract": "№ договора: 24632561",
		"name": "Роман",
		"city": "Зеленоград",
		"advantages": "много акций",
		"disadvantages": "не нашел",
		"text": "Lorem ipsum dolor sit amet, consectetur adipiscing elit. Donec sit amet metus placerat, auctor sapien nec, tincidunt augue. Donec fringilla lacinia ante a semper."
	},
	{
		"id": 1,
		"date": "14 апреля 2018",
		"contract": "№ договора: 24632561",
		"name": "Максим",
		"city": "Москва",
		"advantages": "хорошее качество",
		"disadvantages": "недостаточно опытные операторы",
		"text": "Lorem ipsum dolor sit amet, consectetur adipiscing elit. Donec sit amet metus placerat, auctor sapien nec, tincidunt augue. Donec fringilla lacinia ante a semper."
	},
	{
		"id": 2,
		"date": "14 октября 2018",
		"contract": "№ договора: 24632561",
		"name": "Сергей",
		"city": "Санкт-Петербург",
		"advantages": "приятная цена",
		"disadvantages": "нет",
		"text": "Lorem ipsum dolor sit amet, consectetur adipiscing elit. Donec sit amet metus placerat, auctor sapien nec, tincidunt augue. Donec fringilla lacinia ante a semper."
	},
	{
		"id": 3,
		"date": "21 ноября 2018",
		"contract": "№ договора: 24632561",
		"name": "Григорий",
		"city": "Лен. область",
		"advantages": "быстро и качественно",
		"disadvantages": "всё ок",
		"text": "Lorem ipsum dolor sit amet, consectetur adipiscing elit. Donec sit amet metus placerat, auctor sapien nec, tincidunt augue. Donec fringilla lacinia ante a semper."
	}
]
